%YAML 1.1
%TAG !u! tag:unity3d.com,2011:
--- !u!114 &11400000
MonoBehaviour:
  m_ObjectHideFlags: 0
  m_CorrespondingSourceObject: {fileID: 0}
  m_PrefabInstance: {fileID: 0}
  m_PrefabAsset: {fileID: 0}
  m_GameObject: {fileID: 0}
  m_Enabled: 1
  m_EditorHideFlags: 0
  m_Script: {fileID: 11500000, guid: 4c1059bd43b3c1e40b1b669aa07eae07, type: 3}
  m_Name: Item1
  m_EditorClassIdentifier: 
  id: 1
  itemName: Item 1
  icon: {fileID: 21300000, guid: 8f3d37261fc28624ab48b0b61a5f6afb, type: 3}
  itemDesc: Testing Item 1
  isPicked: 0
