%YAML 1.1
%TAG !u! tag:unity3d.com,2011:
--- !u!114 &11400000
MonoBehaviour:
  m_ObjectHideFlags: 0
  m_CorrespondingSourceObject: {fileID: 0}
  m_PrefabInstance: {fileID: 0}
  m_PrefabAsset: {fileID: 0}
  m_GameObject: {fileID: 0}
  m_Enabled: 1
  m_EditorHideFlags: 0
  m_Script: {fileID: 11500000, guid: 4c1059bd43b3c1e40b1b669aa07eae07, type: 3}
  m_Name: Miller's Journal
  m_EditorClassIdentifier: 
  id: 15
  itemName: Miller's Journal
  icon: {fileID: 21300000, guid: fbe4e2a7a605742499a5c498e80e3985, type: 3}
  itemDesc: It's a journal not a diary!
  isPicked: 0
