%YAML 1.1
%TAG !u! tag:unity3d.com,2011:
--- !u!114 &11400000
MonoBehaviour:
  m_ObjectHideFlags: 0
  m_CorrespondingSourceObject: {fileID: 0}
  m_PrefabInstance: {fileID: 0}
  m_PrefabAsset: {fileID: 0}
  m_GameObject: {fileID: 0}
  m_Enabled: 1
  m_EditorHideFlags: 0
  m_Script: {fileID: 11500000, guid: 4c1059bd43b3c1e40b1b669aa07eae07, type: 3}
  m_Name: White Book
  m_EditorClassIdentifier: 
  id: 19
  itemName: White Book
  icon: {fileID: 21300000, guid: 75235226dc6303841b29858bf4497273, type: 3}
  itemDesc: A White Book
  isPicked: 0
